{
  "hosting": {
    "public": "sito_qr",
    "ignore": [
      "firebase.json",
      "**/.*",
      "**/node_modules/**"
    ],
    "rewrites": [
      {
        "source": "**",
        "destination": "/index.html"
      }
    ]
  },
  "hosting": {
    "site": "haltgreenpass",
    "public": "sito_qr"
  }
}
